<?xml version="1.0" encoding="utf-8"?>
<!-- Generator: Adobe Illustrator 24.1.1, SVG Export Plug-In . SVG Version: 6.00 Build 0)  -->
<svg version="1.1" id="Camada_1" xmlns="http://www.w3.org/2000/svg" xmlns:xlink="http://www.w3.org/1999/xlink" x="0px" y="0px"
	 viewBox="0 0 596.06 1249.3" style="enable-background:new 0 0 596.06 1249.3;" xml:space="preserve">
<style type="text/css">
	.st0{fill:#D4DEEB;}
	.st1{fill:#F94631;}
	.st2{fill:#FF5F43;}
	.st3{fill:#FFB183;}
	.st4{fill:#1D3248;}
	.st5{fill:#FF8D60;}
	.st6{fill:#007CF8;}
	.st7{fill:#ACD1FF;}
	.st8{fill:#0073DC;}
	.st9{fill:#FF8928;}
	.st10{fill:#5E7D9C;}
</style>
<g>
	<g>
		<g>
			<polygon class="st0" points="188.51,1220.87 192.87,1155.11 223.29,1158.39 212.07,1225.46 			"/>
			<path class="st1" d="M214.6,1209.68c1.96,0.28,3.81,1,5.3,2.23c10.36,8.59,23.19,18.38,32.46,21.91
				c15.66,5.97,24.77,15.49,0.39,15.49c-24.38,0-31.78-0.77-39.13-0.94c-10.87-0.26-5.98,0.94-33.12,0.94
				c-13.36,0-7.09-25.09,0.25-37.26c2.23-3.7,2.99-6.78,7.45-6.14L214.6,1209.68z"/>
		</g>
		<g>
			<polygon class="st0" points="267.27,1220.87 281.1,1156.76 311.52,1160.02 290.83,1225.46 			"/>
			<path class="st2" d="M295.08,1209.68c1.96,0.28,3.81,1,5.3,2.23c10.36,8.59,41.86,23.98,58.03,26.31
				c17.33,2.5,18.21,11.08-6.17,11.08c-24.38,0-42.26-2.18-53.14-1.9c-10.87,0.28-15.02,1.9-41.76,1.9
				c-20.52,0-7.12-26.17,0.22-38.34c2.23-3.7,6.64-5.7,11.1-5.06L295.08,1209.68z"/>
		</g>
		<path class="st3" d="M584.82,62.11c-7.74,5.98-16.3,10.92-23.51,14.98c-4.87,0.71-10.08,2.88-14.43,5.78
			c-5.42,3.61-31.64,22.06-38.7,45.54c-3.46,7.38-6.99,14.76-10.68,21.98c-0.78,1.57-1.57,3.14-2.35,4.71
			c-0.79,1.49-1.49,2.91-2.2,4.32c-3.69,6.99-7.3,13.74-10.91,20.1c-13.74,24.65-26.22,43.34-32.03,47.03
			c-21.2,10.68-85.11,3.53-123.66-5.03c-11.7-2.51-23.32,4.87-25.91,16.56c-2.59,11.7,4.78,23.32,16.56,25.91
			c11.7,2.59,54.65,11.46,95.01,11.46c21.67,0,42.63-2.59,57.55-10.13c15.54-7.85,30.54-39.89,41.69-69.17
			c2.51-6.44,4.79-12.8,6.83-18.69c1.57-4.48,3.06-8.64,4.39-12.49c0.08-0.31,0.24-0.63,0.31-0.94c2.2-6.83,4.16-12.41,5.5-16.17
			c2.74-7.62,4.4-10.76,6.91-16.49c2.44-5.73,26.07-5.81,35.72-12.33c10.05-6.67,8.88-23.79,4.79-34.94
			c-0.29-0.79-0.75-1.35-1.14-2.01c1.82-1.16,3.67-2.37,5.57-3.64C593.98,69.24,605.42,46.21,584.82,62.11z"/>
		<path class="st3" d="M335.32,108.43c0-45.08-33.53-81.19-78.61-81.19c-45.08,0-81.64,36.55-81.64,81.64
			c0,31.34,16.7,65.91,42.61,79.59c-1.04,20.06,1.05,42.11,13.53,61.9c13.26,21.04,15.83,25.27,16.06,25.64
			c4.81,8.04,13.31,12.51,22.05,12.5c4.47,0,9.01-1.17,13.13-3.63c12.17-7.26,16.16-23.03,8.9-35.2c0,0-2.1-3.52-16.71-26.7
			c-3.63-5.76-6.06-12.03-5.82-26.23C320.84,206.61,335.32,149.04,335.32,108.43z"/>
		<path class="st4" d="M195.57,701.99c0,0-22.26-56.32-7.94-134.49h182.81c0,0,4.91,55.03,0.71,114.53L195.57,701.99z"/>
		<path class="st4" d="M227.75,636.41c-0.22,0-0.43,0-0.64,0c-19.88,0-43.54,0-36.52,43.76c0.28,1.71,8.38,177.8,2.45,251.78
			c-5.58,69.79-10.59,263.26-10.73,265.38h40.63c0.14-2.11,37.39-190.25,42.94-259.54c6.11-76.26,11.02-249.28,11.14-256.44
			C277.37,661.17,247.93,636.76,227.75,636.41z"/>
		<path class="st4" d="M371.3,673.82c-1.39-20.13-21.22-31.01-41.27-29.47c-20.13,1.38-60.63,17.35-59.24,37.49
			c0.1,1.52,35.75,154.13,37.08,223c1.17,61.01-3.55,111.94-44.44,293.09l39.84,2.71c8.92-23.93,79.32-211.36,77.66-297.21
			C379.56,832.76,371.73,680.1,371.3,673.82z"/>
		<path class="st3" d="M201.35,243.27c0,0-29.76,141.95-35.33,168.18c-2.12,9.97-9.42,17.51-19.08,19.48
			c-1.96,0.47-4,0.86-6.43,0.86c-8.64,0-17.27-13.19-43.34-51.82c-0.78-1.18-1.65-2.43-2.51-3.69c-3.07-4.47-6.29-9.27-9.74-14.45
			c-0.87-1.34-1.81-2.67-2.75-4.01c-6.04-8.79-12.87-18.61-20.41-29.44c-7.46,2.67-29.91,14.84-38.79,14.84
			c-12.01,0-26.77-1.18-22.06-12.25c5.02-11.7,16.65-19.55,28.03-22.85c6.04-1.81,17.11-4.79,21.51-7.38
			c0.31-0.16,0.71-0.23,1.03-0.47c0.62-0.31,1.33-0.63,2.04-0.86c0.63-0.31,1.33-0.47,1.96-0.71c0.71-0.16,1.41-0.31,2.04-0.47
			c0.78-0.08,1.49-0.24,2.2-0.24c0.63-0.08,1.33-0.08,1.96-0.08c0.71,0,1.49,0.08,2.19,0.16c0.63,0.08,1.26,0.16,1.89,0.31
			c0.79,0.16,1.49,0.31,2.12,0.55c0.71,0.16,1.26,0.39,1.88,0.71c0.71,0.24,1.34,0.55,1.96,0.94c0.63,0.31,1.18,0.63,1.73,1.02
			c0.63,0.39,1.17,0.87,1.73,1.34c0.55,0.39,1.1,0.86,1.57,1.41c0.47,0.47,1.02,1.1,1.49,1.65c0.24,0.31,0.48,0.55,0.71,0.87
			c8.4,11.54,17.67,23.87,26.77,35.33c1.03,1.25,2.05,2.59,3.07,3.84c3.76,4.71,7.46,9.27,10.99,13.51
			c1.02,1.18,1.96,2.35,2.91,3.53c2.59,3.06,5.03,5.89,7.38,8.48c1.41-6.75,2.98-14.13,4.55-21.83c0.23-1.02,0.47-2.12,0.71-3.22
			c10.37-49.62,23.55-112.12,23.55-112.12L201.35,243.27z"/>
		<path class="st5" d="M122.67,363.08l-25.52,16.88c-0.78-1.18-1.65-2.43-2.51-3.69c-3.07-4.47-6.29-9.27-9.74-14.45
			c-0.87-1.34-1.81-2.67-2.75-4.01l23.55-15.62c1.03,1.25,2.05,2.59,3.07,3.84c3.76,4.71,7.46,9.27,10.99,13.51
			C120.78,360.73,121.73,361.9,122.67,363.08z"/>
		<path class="st6" d="M487.61,161.22c-26.22,50.25-38,60.77-39.81,62.18c-19.54,9.29-66.12,5.35-103.27-2.17
			c-9.21-2.61-16.77-4.37-19.9-4.37H173.3c-8.68,0-15.69,6.07-17.55,13.93l-0.02,0c0,0-16.96,80.79-27.87,132.53
			c-2.59-3.06-5.5-6.52-8.72-10.44l-39.88,31.95c30.46,37.3,46.17,50.49,61.78,50.56c0.08,0,0.08,0,0.16,0
			c2.35,0,4.79-0.31,7.22-0.86c2.91-0.71,5.57-1.81,8.01-3.3c6.68-4,11.55-10.75,13.27-19c1.18-5.53,3.45-16.32,6.32-29.91
			c8.33,70.44,21.16,84.74,11.6,185.17h182.81c0,0-6.95-186.43-19.86-286.28c18.01,2.76,43.88,3.63,66.94,1.42
			c22.2-2.12,38.3-6.08,53.76-13.85c7.38-3.69,16.51-8.09,54.19-80.32L487.61,161.22z"/>
		<path class="st7" d="M119.14,352.87l-39.88,31.95c-2.05-2.51-4.16-5.18-6.36-7.93l39.89-31.88
			C115.06,347.85,117.17,350.44,119.14,352.87z"/>
		<path class="st5" d="M522.78,164.05c-0.08,0.31-0.23,0.62-0.31,0.94c-1.33,3.85-2.82,8.01-4.39,12.49l-25.13-18.06
			c0.71-1.41,1.41-2.83,2.2-4.32c0.78-1.57,1.57-3.14,2.35-4.71L522.78,164.05z"/>
		<path class="st7" d="M529.71,180.3c-1.41,2.82-2.83,5.49-4.24,8.17l-37.86-27.25c1.33-2.59,2.74-5.34,4.24-8.24L529.71,180.3z"/>
		<path class="st8" d="M176.06,382.47c-2.9,13.51-5.18,24.18-6.36,29.75c-1.73,8.25-6.59,15-13.27,19l9.19-128.29
			C169.15,327.36,172.76,354.6,176.06,382.47z"/>
		<path class="st9" d="M338.34,14.34c0,0-1.39,12.5-30.17-0.49c-53.99-24.37-109.05-11.45-124.15,0
			c-14.79,11.22-16.76,22.89-12.21,32.16c-11.93,10.78-19.8,25.5-19.85,36.38c-0.25,46.45,29.08,93.71,60.93,93.71
			c50.85,0,73.25-61.93,70.39-97.63c-0.25-3.17-0.52-6.39-0.83-9.58c1.63,0.3,3.25,0.6,4.9,0.91
			C347,81.07,338.34,14.34,338.34,14.34z"/>
		<path class="st3" d="M255.34,112.29c0,8.56,3.85,16.22,9.91,21.34c7.1,6,18.02,0.59,18.02-8.71V99.67
			c0-9.3-10.92-14.71-18.02-8.71C259.19,96.08,255.34,103.74,255.34,112.29z"/>
		<g>
			<path class="st10" d="M295.66,1194.29l-3.74-1.2c0.64-1.99,57.05-183.35,63.82-212.38c4.69-20.1,12.38-58.2,11.23-87.65
				c-0.97-24.87-14.58-225.04-14.71-227.06c2.58-24.18,3.9-102.67,3.92-103.46l3.93,0.06c-0.02,0.8-1.34,79.46-3.93,103.47
				c0.14,1.68,13.76,201.91,14.73,226.83c1.17,29.9-6.6,68.4-11.34,88.69C352.75,1010.79,296.29,1192.29,295.66,1194.29z"/>
			<rect x="181.48" y="583.85" class="st10" width="61.18" height="3.93"/>
		</g>
	</g>
	<g>
		<defs>
			<path id="SVGID_1_" d="M370.43,567.49c0,0-6.95-186.43-19.86-286.28c18.01,2.76,43.88,3.63,66.94,1.42
				c22.2-2.12,38.3-6.08,53.76-13.85c7.38-3.69,16.51-8.09,54.19-80.32c1.41-2.67,2.83-5.34,4.24-8.17l-10.07-7.27
				c1-2.8,1.96-5.51,2.83-8.04c0.08-0.31,0.24-0.63,0.31-0.94c2.2-6.83,4.16-12.41,5.5-16.17c2.74-7.62,4.4-10.76,6.91-16.49
				c2.44-5.73,26.07-5.81,35.72-12.33c10.05-6.67,8.88-23.79,4.79-34.94c-0.29-0.79-0.75-1.35-1.14-2.01
				c1.82-1.16,3.67-2.37,5.57-3.64c13.86-9.24,25.29-32.26,4.7-16.37c-7.74,5.98-16.3,10.92-23.51,14.98
				c-4.87,0.71-10.08,2.88-14.43,5.78c-5.42,3.61-31.64,22.06-38.7,45.54c-3.46,7.38-6.99,14.76-10.68,21.98
				c-0.78,1.57-1.57,3.14-2.35,4.71c-0.04,0.07-0.06,0.12-0.1,0.19l-3.2-2.31c-1.5,2.91-2.91,5.65-4.24,8.24
				c-26.22,50.25-38,60.77-39.81,62.18c-19.54,9.29-66.12,5.35-103.27-2.17c-9.21-2.61-16.77-4.37-19.9-4.37h-53.09
				c-1.81-4.63-2.87-10.56-2.71-20.11c52.02,9.85,66.49-47.71,66.49-88.32c0-16.4-4.49-31.59-12.3-44.31
				c19.81-15.14,15.32-49.79,15.32-49.79s-1.39,12.5-30.17-0.49c-53.99-24.37-109.05-11.45-124.15,0
				c-14.79,11.22-16.76,22.89-12.21,32.16c-11.93,10.78-19.8,25.5-19.85,36.38c-0.21,39.31,20.78,79.09,46.54,90.42
				c5.6,6.46,12.02,11.88,19.18,15.66c-0.48,9.18-0.23,18.79,1.3,28.4H173.3c-8.68,0-15.69,6.07-17.55,13.93l-0.02,0
				c0,0-16.96,80.79-27.87,132.53c-2.59-3.06-5.5-6.52-8.72-10.44c-1.96-2.43-4.08-5.03-6.36-7.85l-2.94,2.35
				c-0.36-0.45-0.71-0.87-1.07-1.33c-1.02-1.26-2.04-2.59-3.07-3.84c-9.1-11.46-18.37-23.79-26.77-35.33
				c-0.24-0.31-0.48-0.55-0.71-0.87c-0.47-0.55-1.02-1.18-1.49-1.65c-0.48-0.55-1.02-1.02-1.57-1.41c-0.55-0.47-1.1-0.94-1.73-1.34
				c-0.55-0.39-1.1-0.71-1.73-1.02c-0.62-0.39-1.25-0.71-1.96-0.94c-0.62-0.31-1.17-0.55-1.88-0.71c-0.63-0.23-1.33-0.39-2.12-0.55
				c-0.63-0.16-1.26-0.24-1.89-0.31c-0.71-0.08-1.49-0.16-2.19-0.16c-0.63,0-1.33,0-1.96,0.08c-0.71,0-1.42,0.16-2.2,0.24
				c-0.63,0.16-1.33,0.31-2.04,0.47c-0.63,0.23-1.33,0.39-1.96,0.71c-0.71,0.23-1.42,0.55-2.04,0.86c-0.31,0.24-0.71,0.31-1.03,0.47
				c-4.39,2.59-15.47,5.57-21.51,7.38c-11.39,3.3-23.01,11.15-28.03,22.85c-4.71,11.07,10.05,12.25,22.06,12.25
				c8.88,0,31.33-12.17,38.79-14.84c7.54,10.83,14.37,20.65,20.41,29.44c0.94,1.33,1.89,2.67,2.75,4.01
				c0.82,1.23,1.59,2.37,2.38,3.57l-14.4,11.51c2.2,2.75,4.32,5.42,6.36,7.93c30.46,37.3,46.17,50.49,61.78,50.56
				c0.08,0,0.08,0,0.16,0c2.35,0,4.79-0.31,7.22-0.86c2.91-0.71,5.57-1.81,8.01-3.3c6.68-4,11.55-10.75,13.27-19
				c0.3-1.4,0.67-3.16,1.1-5.21c1.27-5.96,3.08-14.44,5.24-24.48c8.33,70.24,21.13,84.62,11.58,184.95 M187.62,567.49
				c-1.02,5.58-1.81,11.01-2.48,16.35h-3.66v3.93h3.24c-4.98,44.62,1.33,80.21,6.23,99.15c1.55,32.95,7.36,179.26,2.09,245.02
				c-5.58,69.79-10.59,263.26-10.73,265.38h7.75l-0.58,8.76l-1.3-0.18c-4.46-0.64-5.22,2.44-7.45,6.14
				c-7.34,12.17-13.6,37.26-0.25,37.26c27.14,0,22.25-1.2,33.12-0.94c7.35,0.18,14.75,0.94,39.13,0.94c1.28,0,2.42-0.04,3.53-0.09
				c0.37,0.02,0.67,0.09,1.07,0.09c26.74,0,30.88-1.63,41.76-1.9c10.87-0.28,28.75,1.9,53.14,1.9c24.38,0,23.5-8.58,6.17-11.08
				c-16.17-2.34-47.68-17.72-58.03-26.31c-1.31-1.09-2.92-1.72-4.62-2.05l3.02-9.53l4.49,0.31c8.92-23.93,79.32-211.36,77.66-297.21
				c-1.28-66.15-8.23-204.21-9.45-226.67c3.55-57.43-1.04-109.25-1.04-109.25 M270.45,1206.16l-1.77-0.25
				c-4.46-0.64-8.87,1.36-11.1,5.06c-3.23,5.34-7.62,13.39-9.79,20.74c-8.64-4.47-19.13-12.54-27.88-19.8
				c-1.46-1.21-3.28-1.92-5.2-2.21l2.07-12.37h6.17c0.14-2.11,37.39-190.25,42.94-259.54c4.78-59.63,8.82-178.41,10.41-230.81
				c10.08,46.5,30.57,145.95,31.57,197.86c1.17,61.01-3.55,111.94-44.44,293.09l8.66,0.59L270.45,1206.16z"/>
		</defs>
		<clipPath id="SVGID_2_">
			<use xlink:href="#SVGID_1_"  style="overflow:visible;"/>
		</clipPath>
	</g>
</g>
</svg>
