<?xml version="1.0" encoding="utf-8"?>
<!-- Generator: Adobe Illustrator 24.1.1, SVG Export Plug-In . SVG Version: 6.00 Build 0)  -->
<svg version="1.1" id="Camada_1" xmlns="http://www.w3.org/2000/svg" xmlns:xlink="http://www.w3.org/1999/xlink" x="0px" y="0px"
	 viewBox="0 0 216.78 221.22" style="enable-background:new 0 0 216.78 221.22;" xml:space="preserve">
<style type="text/css">
	.st0{opacity:0.2;}
	.st1{fill:#5582DE;}
	.st2{fill:#FFFFFF;}
</style>
<g>
	<g class="st0">
		<path d="M148.95,203.63l-124.88-21.3C8.32,179.64-2.27,164.7,0.42,148.95l21.3-124.88C24.4,8.32,39.35-2.27,55.09,0.42
			l124.88,21.3c15.75,2.69,26.33,17.63,23.65,33.37l-21.3,124.88C179.64,195.72,164.7,206.31,148.95,203.63z"/>
	</g>
	<g>
		<path class="st1" d="M161.69,220.8L36.81,199.5c-15.75-2.69-26.34-17.63-23.65-33.37l21.3-124.88
			c2.69-15.75,17.63-26.33,33.37-23.65l124.88,21.3c15.75,2.69,26.33,17.63,23.65,33.37l-21.3,124.88
			C192.38,212.9,177.44,223.49,161.69,220.8z"/>
		<path class="st2" d="M124.36,77.5l6.94,27.86c0.23,0.94,0.95,1.68,1.89,1.93l27.69,7.59c2.25,0.62,2.68,3.61,0.71,4.84
			l-24.35,15.21c-0.82,0.51-1.3,1.43-1.25,2.39L137.3,166c0.11,2.33-2.6,3.67-4.39,2.17l-21.99-18.46
			c-0.74-0.62-1.76-0.79-2.66-0.45L81.4,159.39c-2.18,0.82-4.29-1.34-3.42-3.5l10.77-26.62c0.36-0.9,0.21-1.92-0.39-2.67
			l-17.94-22.42c-1.45-1.82-0.05-4.5,2.27-4.33l28.64,2.01c0.96,0.07,1.89-0.39,2.42-1.2l15.78-23.99
			C120.82,74.73,123.8,75.24,124.36,77.5z"/>
	</g>
</g>
</svg>
