<?xml version="1.0" encoding="utf-8"?>
<!-- Generator: Adobe Illustrator 24.1.1, SVG Export Plug-In . SVG Version: 6.00 Build 0)  -->
<svg version="1.1" id="Camada_1" xmlns="http://www.w3.org/2000/svg" xmlns:xlink="http://www.w3.org/1999/xlink" x="0px" y="0px"
	 viewBox="0 0 272.49 270.79" style="enable-background:new 0 0 272.49 270.79;" xml:space="preserve">
<style type="text/css">
	.st0{opacity:0.3;}
	.st1{fill:#FF6340;}
	.st2{fill:#FFFFFF;}
</style>
<g>
	
		<ellipse transform="matrix(0.7071 -0.7071 0.7071 0.7071 -61.5796 133.1195)" class="st0" cx="129.9" cy="140.89" rx="129.9" ry="129.9"/>
	<circle class="st1" cx="142.59" cy="129.9" r="129.9"/>
	<g>
		<path class="st0" d="M199.8,116.76c-5.18,0-9.87,1.92-13.57,4.98l-57.37-33.12c0.2-1.17,0.36-2.35,0.36-3.57
			c0-11.81-9.57-21.38-21.38-21.38s-21.38,9.57-21.38,21.38c0,11.81,9.57,21.38,21.38,21.38c5.18,0,9.87-1.92,13.57-4.98
			l57.37,33.12c-0.2,1.17-0.36,2.35-0.36,3.57c0,1.22,0.16,2.4,0.36,3.57l-57.37,33.12c-3.7-3.06-8.39-4.98-13.57-4.98
			c-11.81,0-21.38,9.57-21.38,21.38s9.57,21.38,21.38,21.38s21.38-9.57,21.38-21.38c0-1.22-0.16-2.4-0.36-3.57l57.37-33.12
			c3.7,3.06,8.39,4.98,13.57,4.98c11.81,0,21.38-9.57,21.38-21.38C221.18,126.34,211.61,116.76,199.8,116.76z"/>
		<path class="st2" d="M199.8,108.52c-5.18,0-9.87,1.92-13.57,4.98l-57.37-33.12c0.2-1.17,0.36-2.35,0.36-3.57
			c0-11.81-9.57-21.38-21.38-21.38S86.46,65,86.46,76.81s9.57,21.38,21.38,21.38c5.18,0,9.87-1.92,13.57-4.98l57.37,33.12
			c-0.2,1.17-0.36,2.35-0.36,3.57c0,1.22,0.16,2.4,0.36,3.57l-57.37,33.12c-3.7-3.07-8.39-4.98-13.57-4.98
			c-11.81,0-21.38,9.57-21.38,21.38s9.57,21.38,21.38,21.38s21.38-9.57,21.38-21.38c0-1.22-0.16-2.4-0.36-3.57l57.37-33.12
			c3.7,3.07,8.39,4.98,13.57,4.98c11.81,0,21.38-9.57,21.38-21.38S211.61,108.52,199.8,108.52z"/>
	</g>
</g>
</svg>
