<?xml version="1.0" encoding="utf-8"?>
<!-- Generator: Adobe Illustrator 24.1.1, SVG Export Plug-In . SVG Version: 6.00 Build 0)  -->
<svg version="1.1" id="Camada_1" xmlns="http://www.w3.org/2000/svg" xmlns:xlink="http://www.w3.org/1999/xlink" x="0px" y="0px"
	 viewBox="0 0 102.72 306.69" style="enable-background:new 0 0 102.72 306.69;" xml:space="preserve">
<style type="text/css">
	.st0{fill:url(#SVGID_1_);}
	.st1{fill:url(#SVGID_2_);}
	.st2{fill:url(#SVGID_3_);}
	.st3{fill:url(#SVGID_4_);}
	.st4{fill:url(#SVGID_5_);}
	.st5{fill:url(#SVGID_6_);}
	.st6{fill:url(#SVGID_7_);}
	.st7{fill:url(#SVGID_8_);}
	.st8{fill:url(#SVGID_9_);}
	.st9{fill:url(#SVGID_10_);}
	.st10{fill:url(#SVGID_11_);}
	.st11{fill:url(#SVGID_12_);}
	.st12{fill:url(#SVGID_13_);}
	.st13{fill:url(#SVGID_14_);}
	.st14{fill:url(#SVGID_15_);}
	.st15{fill:url(#SVGID_16_);}
</style>
<g>
	<g>
		
			<linearGradient id="SVGID_1_" gradientUnits="userSpaceOnUse" x1="79.9125" y1="52.6596" x2="79.9125" y2="328.8547" gradientTransform="matrix(0.8501 -0.4965 0 -1 22.9814 383.3682)">
			<stop  offset="0" style="stop-color:#FFFFFF;stop-opacity:0.7"/>
			<stop  offset="0.6781" style="stop-color:#FF9DFF;stop-opacity:0.2254"/>
			<stop  offset="1" style="stop-color:#FF74FF;stop-opacity:0"/>
		</linearGradient>
		<polygon class="st0" points="102.72,261.45 79.11,275.24 79.11,77.04 102.72,63.15 		"/>
		
			<linearGradient id="SVGID_2_" gradientUnits="userSpaceOnUse" x1="193.7352" y1="-3.6723" x2="193.7352" y2="285.8344" gradientTransform="matrix(-0.8501 -0.4965 0 -1 231.9943 383.3682)">
			<stop  offset="7.326390e-03" style="stop-color:#FF05FF;stop-opacity:0.8"/>
			<stop  offset="0.0811" style="stop-color:#E320FF;stop-opacity:0.7252"/>
			<stop  offset="0.348" style="stop-color:#837EFF;stop-opacity:0.4548"/>
			<stop  offset="0.564" style="stop-color:#3CC4FF;stop-opacity:0.2358"/>
			<stop  offset="0.7185" style="stop-color:#11EFFF;stop-opacity:0.0792"/>
			<stop  offset="0.7967" style="stop-color:#00FFFF;stop-opacity:0"/>
		</linearGradient>
		<polygon class="st1" points="55.49,261.45 79.11,275.24 79.11,77.04 55.49,63.15 		"/>
		<g>
			<g>
				
					<linearGradient id="SVGID_3_" gradientUnits="userSpaceOnUse" x1="63.2942" y1="244.4752" x2="101.7318" y2="233.113" gradientTransform="matrix(1 0 0 -1 0 308)">
					<stop  offset="7.326390e-03" style="stop-color:#FF05FF;stop-opacity:0.8"/>
					<stop  offset="0.0814" style="stop-color:#E320FF;stop-opacity:0.7533"/>
					<stop  offset="0.3491" style="stop-color:#837EFF;stop-opacity:0.5842"/>
					<stop  offset="0.5658" style="stop-color:#3CC4FF;stop-opacity:0.4474"/>
					<stop  offset="0.7208" style="stop-color:#11EFFF;stop-opacity:0.3495"/>
					<stop  offset="0.7992" style="stop-color:#00FFFF;stop-opacity:0.3"/>
				</linearGradient>
				<polygon class="st2" points="77.96,58.71 61.44,67.86 77.96,77.01 94.47,67.86 				"/>
				
					<linearGradient id="SVGID_4_" gradientUnits="userSpaceOnUse" x1="68.1977" y1="243.0258" x2="93.7812" y2="235.4632" gradientTransform="matrix(1 0 0 -1 0 308)">
					<stop  offset="7.326390e-03" style="stop-color:#FF05FF;stop-opacity:0.8"/>
					<stop  offset="0.0814" style="stop-color:#E320FF;stop-opacity:0.7533"/>
					<stop  offset="0.3491" style="stop-color:#837EFF;stop-opacity:0.5842"/>
					<stop  offset="0.5658" style="stop-color:#3CC4FF;stop-opacity:0.4474"/>
					<stop  offset="0.7208" style="stop-color:#11EFFF;stop-opacity:0.3495"/>
					<stop  offset="0.7992" style="stop-color:#00FFFF;stop-opacity:0.3"/>
				</linearGradient>
				<polygon class="st3" points="77.96,61.77 66.97,67.86 77.96,73.95 88.95,67.86 				"/>
				
					<linearGradient id="SVGID_5_" gradientUnits="userSpaceOnUse" x1="83.6581" y1="25.9749" x2="119.284" y2="15.4438" gradientTransform="matrix(0.9663 -0.5356 0 -1 -9.2004 156.44)">
					<stop  offset="7.326390e-03" style="stop-color:#FF05FF;stop-opacity:0.8"/>
					<stop  offset="0.0814" style="stop-color:#E320FF;stop-opacity:0.7533"/>
					<stop  offset="0.3491" style="stop-color:#837EFF;stop-opacity:0.5842"/>
					<stop  offset="0.5658" style="stop-color:#3CC4FF;stop-opacity:0.4474"/>
					<stop  offset="0.7208" style="stop-color:#11EFFF;stop-opacity:0.3495"/>
					<stop  offset="0.7992" style="stop-color:#00FFFF;stop-opacity:0.3"/>
				</linearGradient>
				<polygon class="st4" points="94.45,86.43 77.96,96.22 77.96,77.01 94.45,67.86 				"/>
				
					<linearGradient id="SVGID_6_" gradientUnits="userSpaceOnUse" x1="87.53" y1="24.8253" x2="114.0027" y2="16.9999" gradientTransform="matrix(0.9663 -0.5356 0 -1 -9.2004 156.44)">
					<stop  offset="7.326390e-03" style="stop-color:#FF05FF;stop-opacity:0.8"/>
					<stop  offset="0.0814" style="stop-color:#E320FF;stop-opacity:0.7533"/>
					<stop  offset="0.3491" style="stop-color:#837EFF;stop-opacity:0.5842"/>
					<stop  offset="0.5658" style="stop-color:#3CC4FF;stop-opacity:0.4474"/>
					<stop  offset="0.7208" style="stop-color:#11EFFF;stop-opacity:0.3495"/>
					<stop  offset="0.7992" style="stop-color:#00FFFF;stop-opacity:0.3"/>
				</linearGradient>
				<polygon class="st5" points="92.33,85.31 80.08,92.58 80.08,78.3 92.33,71.51 				"/>
				
					<linearGradient id="SVGID_7_" gradientUnits="userSpaceOnUse" x1="-697.6176" y1="464.2989" x2="-664.5327" y2="421.4218" gradientTransform="matrix(-0.9663 -0.5356 0 -1 -583.7608 156.44)">
					<stop  offset="0.2008" style="stop-color:#00FFFF;stop-opacity:0.3"/>
					<stop  offset="0.5862" style="stop-color:#837FFF;stop-opacity:0.5433"/>
					<stop  offset="0.8666" style="stop-color:#DC27FF;stop-opacity:0.7204"/>
					<stop  offset="0.9927" style="stop-color:#FF05FF;stop-opacity:0.8"/>
				</linearGradient>
				<polygon class="st6" points="61.44,86.43 77.94,96.22 77.94,77.01 61.44,67.86 				"/>
				
					<linearGradient id="SVGID_8_" gradientUnits="userSpaceOnUse" x1="-692.128" y1="457.1794" x2="-667.5435" y2="425.3187" gradientTransform="matrix(-0.9663 -0.5356 0 -1 -583.7608 156.44)">
					<stop  offset="0.2008" style="stop-color:#00FFFF;stop-opacity:0.3"/>
					<stop  offset="0.5862" style="stop-color:#837FFF;stop-opacity:0.5433"/>
					<stop  offset="0.8666" style="stop-color:#DC27FF;stop-opacity:0.7204"/>
					<stop  offset="0.9927" style="stop-color:#FF05FF;stop-opacity:0.8"/>
				</linearGradient>
				<polygon class="st7" points="63.56,85.31 75.82,92.58 75.82,78.3 63.56,71.51 				"/>
			</g>
		</g>
	</g>
	<g>
		
			<linearGradient id="SVGID_9_" gradientUnits="userSpaceOnUse" x1="14.6437" y1="43.3053" x2="14.6437" y2="445.0729" gradientTransform="matrix(0.8501 -0.4965 0 -1 22.9814 383.3682)">
			<stop  offset="0" style="stop-color:#FFFFFF;stop-opacity:0.7"/>
			<stop  offset="0.6781" style="stop-color:#FF9DFF;stop-opacity:0.2254"/>
			<stop  offset="1" style="stop-color:#FF74FF;stop-opacity:0"/>
		</linearGradient>
		<polygon class="st8" points="47.24,292.89 23.62,306.69 23.62,18.33 47.24,4.44 		"/>
		
			<linearGradient id="SVGID_10_" gradientUnits="userSpaceOnUse" x1="259.0099" y1="-77.7563" x2="259.0099" y2="343.3743" gradientTransform="matrix(-0.8501 -0.4965 0 -1 231.9943 383.3682)">
			<stop  offset="7.326390e-03" style="stop-color:#FF05FF;stop-opacity:0.8"/>
			<stop  offset="0.0811" style="stop-color:#E320FF;stop-opacity:0.7252"/>
			<stop  offset="0.348" style="stop-color:#837EFF;stop-opacity:0.4548"/>
			<stop  offset="0.564" style="stop-color:#3CC4FF;stop-opacity:0.2358"/>
			<stop  offset="0.7185" style="stop-color:#11EFFF;stop-opacity:0.0792"/>
			<stop  offset="0.7967" style="stop-color:#00FFFF;stop-opacity:0"/>
		</linearGradient>
		<polygon class="st9" points="0,292.89 23.62,306.69 23.62,18.33 0,4.44 		"/>
		<g>
			<g>
				
					<linearGradient id="SVGID_11_" gradientUnits="userSpaceOnUse" x1="7.808" y1="303.1841" x2="46.2456" y2="291.8219" gradientTransform="matrix(1 0 0 -1 0 308)">
					<stop  offset="7.326390e-03" style="stop-color:#FF05FF;stop-opacity:0.8"/>
					<stop  offset="0.0814" style="stop-color:#E320FF;stop-opacity:0.7533"/>
					<stop  offset="0.3491" style="stop-color:#837EFF;stop-opacity:0.5842"/>
					<stop  offset="0.5658" style="stop-color:#3CC4FF;stop-opacity:0.4474"/>
					<stop  offset="0.7208" style="stop-color:#11EFFF;stop-opacity:0.3495"/>
					<stop  offset="0.7992" style="stop-color:#00FFFF;stop-opacity:0.3"/>
				</linearGradient>
				<polygon class="st10" points="22.47,0 5.96,9.15 22.47,18.3 38.98,9.15 				"/>
				
					<linearGradient id="SVGID_12_" gradientUnits="userSpaceOnUse" x1="12.7114" y1="301.7346" x2="38.294" y2="294.1724" gradientTransform="matrix(1 0 0 -1 0 308)">
					<stop  offset="7.326390e-03" style="stop-color:#FF05FF;stop-opacity:0.8"/>
					<stop  offset="0.0814" style="stop-color:#E320FF;stop-opacity:0.7533"/>
					<stop  offset="0.3491" style="stop-color:#837EFF;stop-opacity:0.5842"/>
					<stop  offset="0.5658" style="stop-color:#3CC4FF;stop-opacity:0.4474"/>
					<stop  offset="0.7208" style="stop-color:#11EFFF;stop-opacity:0.3495"/>
					<stop  offset="0.7992" style="stop-color:#00FFFF;stop-opacity:0.3"/>
				</linearGradient>
				<polygon class="st11" points="22.47,3.06 11.48,9.15 22.47,15.24 33.46,9.15 				"/>
				
					<linearGradient id="SVGID_13_" gradientUnits="userSpaceOnUse" x1="26.2373" y1="115.4393" x2="61.8611" y2="104.9088" gradientTransform="matrix(0.9663 -0.5356 0 -1 -9.2004 156.44)">
					<stop  offset="7.326390e-03" style="stop-color:#FF05FF;stop-opacity:0.8"/>
					<stop  offset="0.0814" style="stop-color:#E320FF;stop-opacity:0.7533"/>
					<stop  offset="0.3491" style="stop-color:#837EFF;stop-opacity:0.5842"/>
					<stop  offset="0.5658" style="stop-color:#3CC4FF;stop-opacity:0.4474"/>
					<stop  offset="0.7208" style="stop-color:#11EFFF;stop-opacity:0.3495"/>
					<stop  offset="0.7992" style="stop-color:#00FFFF;stop-opacity:0.3"/>
				</linearGradient>
				<polygon class="st12" points="38.97,27.72 22.47,37.51 22.47,18.3 38.97,9.15 				"/>
				
					<linearGradient id="SVGID_14_" gradientUnits="userSpaceOnUse" x1="30.1074" y1="114.2902" x2="56.5822" y2="106.4642" gradientTransform="matrix(0.9663 -0.5356 0 -1 -9.2004 156.44)">
					<stop  offset="7.326390e-03" style="stop-color:#FF05FF;stop-opacity:0.8"/>
					<stop  offset="0.0814" style="stop-color:#E320FF;stop-opacity:0.7533"/>
					<stop  offset="0.3491" style="stop-color:#837EFF;stop-opacity:0.5842"/>
					<stop  offset="0.5658" style="stop-color:#3CC4FF;stop-opacity:0.4474"/>
					<stop  offset="0.7208" style="stop-color:#11EFFF;stop-opacity:0.3495"/>
					<stop  offset="0.7992" style="stop-color:#00FFFF;stop-opacity:0.3"/>
				</linearGradient>
				<polygon class="st13" points="36.85,26.6 24.59,33.87 24.59,19.59 36.85,12.8 				"/>
				
					<linearGradient id="SVGID_15_" gradientUnits="userSpaceOnUse" x1="-640.1947" y1="492.2509" x2="-607.1119" y2="449.3766" gradientTransform="matrix(-0.9663 -0.5356 0 -1 -583.7608 156.44)">
					<stop  offset="0.2008" style="stop-color:#00FFFF;stop-opacity:0.3"/>
					<stop  offset="0.5862" style="stop-color:#837FFF;stop-opacity:0.5433"/>
					<stop  offset="0.8666" style="stop-color:#DC27FF;stop-opacity:0.7204"/>
					<stop  offset="0.9927" style="stop-color:#FF05FF;stop-opacity:0.8"/>
				</linearGradient>
				<polygon class="st14" points="5.96,27.72 22.45,37.51 22.45,18.3 5.96,9.15 				"/>
				
					<linearGradient id="SVGID_16_" gradientUnits="userSpaceOnUse" x1="-634.7097" y1="485.1336" x2="-610.123" y2="453.27" gradientTransform="matrix(-0.9663 -0.5356 0 -1 -583.7608 156.44)">
					<stop  offset="0.2008" style="stop-color:#00FFFF;stop-opacity:0.3"/>
					<stop  offset="0.5862" style="stop-color:#837FFF;stop-opacity:0.5433"/>
					<stop  offset="0.8666" style="stop-color:#DC27FF;stop-opacity:0.7204"/>
					<stop  offset="0.9927" style="stop-color:#FF05FF;stop-opacity:0.8"/>
				</linearGradient>
				<polygon class="st15" points="8.08,26.6 20.34,33.87 20.34,19.59 8.08,12.8 				"/>
			</g>
		</g>
	</g>
</g>
</svg>
