<?xml version="1.0" encoding="utf-8"?>
<!-- Generator: Adobe Illustrator 24.1.1, SVG Export Plug-In . SVG Version: 6.00 Build 0)  -->
<svg version="1.1" id="Camada_1" xmlns="http://www.w3.org/2000/svg" xmlns:xlink="http://www.w3.org/1999/xlink" x="0px" y="0px"
	 viewBox="0 0 165.22 314.76" style="enable-background:new 0 0 165.22 314.76;" xml:space="preserve">
<style type="text/css">
	.st0{fill:url(#SVGID_1_);}
	.st1{fill:url(#SVGID_2_);}
	.st2{fill:url(#SVGID_3_);}
	.st3{fill:url(#SVGID_4_);}
	.st4{fill:url(#SVGID_5_);}
	.st5{fill:url(#SVGID_6_);}
	.st6{fill:url(#SVGID_7_);}
	.st7{fill:url(#SVGID_8_);}
	.st8{fill:url(#SVGID_9_);}
	.st9{fill:url(#SVGID_10_);}
	.st10{fill:url(#SVGID_11_);}
	.st11{fill:url(#SVGID_12_);}
	.st12{fill:url(#SVGID_13_);}
	.st13{fill:url(#SVGID_14_);}
	.st14{fill:url(#SVGID_15_);}
	.st15{fill:url(#SVGID_16_);}
	.st16{fill:url(#SVGID_17_);}
	.st17{fill:url(#SVGID_18_);}
	.st18{fill:url(#SVGID_19_);}
	.st19{fill:url(#SVGID_20_);}
</style>
<g>
	
		<linearGradient id="SVGID_1_" gradientUnits="userSpaceOnUse" x1="82.22" y1="-0.76" x2="82.22" y2="329.0481" gradientTransform="matrix(1 0 0 -1 0 314)">
		<stop  offset="0" style="stop-color:#FFFFFF;stop-opacity:0"/>
		<stop  offset="0.0921" style="stop-color:#FFF8FE;stop-opacity:0.0921"/>
		<stop  offset="0.2213" style="stop-color:#FFE6FC;stop-opacity:0.2213"/>
		<stop  offset="0.3724" style="stop-color:#FFC8F9;stop-opacity:0.3724"/>
		<stop  offset="0.5402" style="stop-color:#FF9EF4;stop-opacity:0.5402"/>
		<stop  offset="0.7216" style="stop-color:#FF69ED;stop-opacity:0.7216"/>
		<stop  offset="0.9117" style="stop-color:#FF28E6;stop-opacity:0.9117"/>
		<stop  offset="1" style="stop-color:#FF08E2"/>
	</linearGradient>
	<path class="st0" d="M120.95,39.87c-0.02-0.03-0.04-0.05-0.06-0.08c0.02,0.04,0.05,0.07,0.08,0.11
		C120.97,39.9,120.96,39.88,120.95,39.87z M119.36,37.76c-0.02-0.02-0.04-0.04-0.06-0.07c0.05,0.06,0.1,0.12,0.15,0.19
		C119.42,37.84,119.4,37.8,119.36,37.76z M134.84,62.48c-0.65,0.91-1.36,1.81-2.14,2.7l0,0C133.48,64.29,134.19,63.39,134.84,62.48z
		 M135.49,61.45c-0.22,0.34-0.41,0.69-0.65,1.03c0.64-0.91,1.22-1.84,1.74-2.77C136.26,60.3,135.87,60.87,135.49,61.45z
		 M30.96,65.81c-0.77-0.97-1.44-1.96-2.03-2.97C29.53,63.84,30.2,64.84,30.96,65.81L30.96,65.81z M151.42,76.53l0.51,0.31v16.99
		l-24.98,15.04L107.72,97.2c-2.93,0.94-6.59,1.55-9.68,2.17v16.99l-34.55,0.39V99.77c-3.04-0.55-5.4-1.1-8.26-1.97L35.1,109.91
		L11.22,95.43V78.44l0,0l0,0l0.2-0.12l0.34-0.2L0,78.25V309.5l111.91,5.26L164.44,303V76.38L151.42,76.53z M31.34,66.32
		c-0.14-0.17-0.24-0.34-0.37-0.51l0,0C31.1,65.98,31.2,66.16,31.34,66.32L31.34,66.32z M117.41,35.73
		c-0.03-0.03-0.07-0.06-0.11-0.09c0.04,0.04,0.09,0.08,0.13,0.12C117.43,35.75,117.42,35.74,117.41,35.73z M115.08,33.79
		c-0.08-0.06-0.18-0.11-0.26-0.17c0.18,0.13,0.36,0.27,0.53,0.4C115.26,33.94,115.18,33.86,115.08,33.79z"/>
	<g>
		<g>
			
				<linearGradient id="SVGID_2_" gradientUnits="userSpaceOnUse" x1="41.4496" y1="271.7903" x2="133.1533" y2="271.7903" gradientTransform="matrix(1 0 0 -1 0 314)">
				<stop  offset="0" style="stop-color:#FF6CFF"/>
				<stop  offset="0.0925" style="stop-color:#F96EFF;stop-opacity:0.9258"/>
				<stop  offset="0.2172" style="stop-color:#E872FD;stop-opacity:0.8257"/>
				<stop  offset="0.3604" style="stop-color:#CB7AFC;stop-opacity:0.7107"/>
				<stop  offset="0.5174" style="stop-color:#A485F9;stop-opacity:0.5847"/>
				<stop  offset="0.6856" style="stop-color:#7193F6;stop-opacity:0.4497"/>
				<stop  offset="0.8604" style="stop-color:#35A4F2;stop-opacity:0.3094"/>
				<stop  offset="0.9967" style="stop-color:#00B2EE;stop-opacity:0.2"/>
			</linearGradient>
			<path class="st1" d="M112.38,31.96c-15.72-9.53-41.78-9.24-58.22,0.66c-12.21,7.35-15.66,17.94-10.19,26.8
				c0.94-3.03,4.17-6.19,10.19-9.81c0.14-0.09,0.3-0.16,0.45-0.24c15.3-9.14,37.93-10.85,56.05-1.36c0.58,0.31,1.17,0.61,1.73,0.94
				c4.59,2.78,7.71,5.19,9.49,7.47C126.25,47.93,123.14,38.49,112.38,31.96z"/>
			
				<linearGradient id="SVGID_3_" gradientUnits="userSpaceOnUse" x1="143.94" y1="275.17" x2="143.94" y2="294.6534" gradientTransform="matrix(1 0 0 -1 0 314)">
				<stop  offset="0" style="stop-color:#FF6CFF"/>
				<stop  offset="0.0925" style="stop-color:#F96EFF;stop-opacity:0.9258"/>
				<stop  offset="0.2172" style="stop-color:#E872FD;stop-opacity:0.8257"/>
				<stop  offset="0.3604" style="stop-color:#CB7AFC;stop-opacity:0.7107"/>
				<stop  offset="0.5174" style="stop-color:#A485F9;stop-opacity:0.5847"/>
				<stop  offset="0.6856" style="stop-color:#7193F6;stop-opacity:0.4497"/>
				<stop  offset="0.8604" style="stop-color:#35A4F2;stop-opacity:0.3094"/>
				<stop  offset="0.9967" style="stop-color:#00B2EE;stop-opacity:0.2"/>
			</linearGradient>
			<path class="st2" d="M137.36,38.83l16.1-0.18l0.54-0.32V21.34l-20.12,12.11C135.32,35.18,136.46,36.99,137.36,38.83z"/>
			
				<linearGradient id="SVGID_4_" gradientUnits="userSpaceOnUse" x1="15.67" y1="235.75" x2="15.67" y2="255.0219" gradientTransform="matrix(1 0 0 -1 0 314)">
				<stop  offset="0" style="stop-color:#FF6CFF"/>
				<stop  offset="0.0925" style="stop-color:#F96EFF;stop-opacity:0.9258"/>
				<stop  offset="0.2172" style="stop-color:#E872FD;stop-opacity:0.8257"/>
				<stop  offset="0.3604" style="stop-color:#CB7AFC;stop-opacity:0.7107"/>
				<stop  offset="0.5174" style="stop-color:#A485F9;stop-opacity:0.5847"/>
				<stop  offset="0.6856" style="stop-color:#7193F6;stop-opacity:0.4497"/>
				<stop  offset="0.8604" style="stop-color:#35A4F2;stop-opacity:0.3094"/>
				<stop  offset="0.9967" style="stop-color:#00B2EE;stop-opacity:0.2"/>
			</linearGradient>
			<path class="st3" d="M31.34,66.32c-1.44-1.74-2.58-3.54-3.48-5.38L0,61.26v16.99l11.76-0.13L31.34,66.32z"/>
			
				<linearGradient id="SVGID_5_" gradientUnits="userSpaceOnUse" x1="22.905" y1="271" x2="22.905" y2="293.3464" gradientTransform="matrix(1 0 0 -1 0 314)">
				<stop  offset="0" style="stop-color:#FF6CFF"/>
				<stop  offset="0.0925" style="stop-color:#F96EFF;stop-opacity:0.9258"/>
				<stop  offset="0.2172" style="stop-color:#E872FD;stop-opacity:0.8257"/>
				<stop  offset="0.3604" style="stop-color:#CB7AFC;stop-opacity:0.7107"/>
				<stop  offset="0.5174" style="stop-color:#A485F9;stop-opacity:0.5847"/>
				<stop  offset="0.6856" style="stop-color:#7193F6;stop-opacity:0.4497"/>
				<stop  offset="0.8604" style="stop-color:#35A4F2;stop-opacity:0.3094"/>
				<stop  offset="0.9967" style="stop-color:#00B2EE;stop-opacity:0.2"/>
			</linearGradient>
			<path class="st4" d="M28.63,40.06c1.04-1.86,2.32-3.7,3.89-5.47L13.29,22.93V43h0.51L28.63,40.06z"/>
			
				<linearGradient id="SVGID_6_" gradientUnits="userSpaceOnUse" x1="148.57" y1="237.47" x2="148.57" y2="256.5548" gradientTransform="matrix(1 0 0 -1 0 314)">
				<stop  offset="0" style="stop-color:#FF6CFF"/>
				<stop  offset="0.0925" style="stop-color:#F96EFF;stop-opacity:0.9258"/>
				<stop  offset="0.2172" style="stop-color:#E872FD;stop-opacity:0.8257"/>
				<stop  offset="0.3604" style="stop-color:#CB7AFC;stop-opacity:0.7107"/>
				<stop  offset="0.5174" style="stop-color:#A485F9;stop-opacity:0.5847"/>
				<stop  offset="0.6856" style="stop-color:#7193F6;stop-opacity:0.4497"/>
				<stop  offset="0.8604" style="stop-color:#35A4F2;stop-opacity:0.3094"/>
				<stop  offset="0.9967" style="stop-color:#00B2EE;stop-opacity:0.2"/>
			</linearGradient>
			<path class="st5" d="M132.7,65.17l18.72,11.36l13.02-0.15V59.39l-27.86,0.32C135.54,61.57,134.27,63.4,132.7,65.17z"/>
			
				<linearGradient id="SVGID_7_" gradientUnits="userSpaceOnUse" x1="81.57" y1="197.24" x2="81.57" y2="237.9404" gradientTransform="matrix(1 0 0 -1 0 314)">
				<stop  offset="0" style="stop-color:#FF6CFF"/>
				<stop  offset="0.0925" style="stop-color:#F96EFF;stop-opacity:0.9258"/>
				<stop  offset="0.2172" style="stop-color:#E872FD;stop-opacity:0.8257"/>
				<stop  offset="0.3604" style="stop-color:#CB7AFC;stop-opacity:0.7107"/>
				<stop  offset="0.5174" style="stop-color:#A485F9;stop-opacity:0.5847"/>
				<stop  offset="0.6856" style="stop-color:#7193F6;stop-opacity:0.4497"/>
				<stop  offset="0.8604" style="stop-color:#35A4F2;stop-opacity:0.3094"/>
				<stop  offset="0.9967" style="stop-color:#00B2EE;stop-opacity:0.2"/>
			</linearGradient>
			<path class="st6" d="M126.95,91.88l-19.23-11.67c-2.93,0.94-5.97,1.71-9.06,2.33l-0.63,16.83l-34.55,0.39l0.63-16.84
				c-3.05-0.55-6.03-1.25-8.89-2.12L35.1,92.92l-9.83-5.96l-14.05,8.46l23.88,14.49L55.22,97.8c2.87,0.87,5.22,1.42,8.26,1.97v16.99
				l34.55-0.39V99.38c3.09-0.62,6.75-1.23,9.68-2.17l19.23,11.67l24.98-15.04l-14.05-8.53L126.95,91.88z"/>
			
				<linearGradient id="SVGID_8_" gradientUnits="userSpaceOnUse" x1="312.5609" y1="200.5853" x2="312.5609" y2="232.3908" gradientTransform="matrix(-1 0 0 -1 429.8909 314)">
				<stop  offset="0" style="stop-color:#FF6CFF"/>
				<stop  offset="0.0925" style="stop-color:#F96EFF;stop-opacity:0.9258"/>
				<stop  offset="0.2172" style="stop-color:#E872FD;stop-opacity:0.8257"/>
				<stop  offset="0.3604" style="stop-color:#CB7AFC;stop-opacity:0.7107"/>
				<stop  offset="0.5174" style="stop-color:#A485F9;stop-opacity:0.5847"/>
				<stop  offset="0.6856" style="stop-color:#7193F6;stop-opacity:0.4497"/>
				<stop  offset="0.8604" style="stop-color:#35A4F2;stop-opacity:0.3094"/>
				<stop  offset="0.9967" style="stop-color:#00B2EE;stop-opacity:0.2"/>
			</linearGradient>
			<polygon class="st7" points="107.71,80.17 107.71,97.16 126.95,108.73 126.95,91.74 			"/>
			
				<linearGradient id="SVGID_9_" gradientUnits="userSpaceOnUse" x1="45.16" y1="199.3086" x2="45.16" y2="231.7202" gradientTransform="matrix(1 0 0 -1 0 314)">
				<stop  offset="0" style="stop-color:#FF6CFF"/>
				<stop  offset="0.0925" style="stop-color:#F96EFF;stop-opacity:0.9258"/>
				<stop  offset="0.2172" style="stop-color:#E872FD;stop-opacity:0.8257"/>
				<stop  offset="0.3604" style="stop-color:#CB7AFC;stop-opacity:0.7107"/>
				<stop  offset="0.5174" style="stop-color:#A485F9;stop-opacity:0.5847"/>
				<stop  offset="0.6856" style="stop-color:#7193F6;stop-opacity:0.4497"/>
				<stop  offset="0.8604" style="stop-color:#35A4F2;stop-opacity:0.3094"/>
				<stop  offset="0.9967" style="stop-color:#00B2EE;stop-opacity:0.2"/>
			</linearGradient>
			<polygon class="st8" points="55.22,80.81 55.22,97.8 35.1,109.91 35.1,92.92 			"/>
		</g>
		
			<linearGradient id="SVGID_10_" gradientUnits="userSpaceOnUse" x1="-1412.9735" y1="191.2612" x2="-1412.9735" y2="345.8161" gradientTransform="matrix(0.819 0.4969 0.8567 -0.5159 1016.533 886.463)">
			<stop  offset="7.326390e-03" style="stop-color:#FF05FF;stop-opacity:0.8"/>
			<stop  offset="0.0813" style="stop-color:#E320FF;stop-opacity:0.772"/>
			<stop  offset="0.3489" style="stop-color:#837EFF;stop-opacity:0.6705"/>
			<stop  offset="0.5656" style="stop-color:#3CC4FF;stop-opacity:0.5884"/>
			<stop  offset="0.7205" style="stop-color:#11EFFF;stop-opacity:0.5297"/>
			<stop  offset="0.7989" style="stop-color:#00FFFF;stop-opacity:0.5"/>
		</linearGradient>
		<path class="st9" d="M126.95,91.88l24.98-15.04L132.7,65.17c1.57-1.77,2.85-3.6,3.89-5.47l27.86-0.32l0.78-20.88l-27.86,0.32
			c-0.9-1.84-2.05-3.65-3.48-5.38l20.12-12.11l-23.9-14.48L110,18.96c-2.87-0.87-5.85-1.57-8.89-2.13L101.73,0L67.18,0.39
			l-0.63,16.84c-3.09,0.62-6.12,1.39-9.06,2.33L38.27,7.89L13.29,22.93L32.52,34.6c-1.57,1.77-2.85,3.6-3.89,5.47L0.78,40.38
			L0,61.26l27.86-0.32c0.9,1.84,2.05,3.65,3.48,5.38L11.22,78.44L35.1,92.92l20.12-12.11c2.87,0.87,5.85,1.57,8.89,2.13l-0.63,16.83
			l34.55-0.39l0.63-16.83c3.09-0.62,6.12-1.39,9.06-2.33L126.95,91.88z M52.84,67.81c-15.72-9.53-15.13-25.29,1.31-35.19
			s42.51-10.19,58.22-0.66c15.72,9.53,15.13,25.29-1.31,35.19C94.63,77.05,68.56,77.34,52.84,67.81z"/>
		<g>
			
				<linearGradient id="SVGID_11_" gradientUnits="userSpaceOnUse" x1="41.47" y1="276.7853" x2="133.1444" y2="276.7853" gradientTransform="matrix(1 0 0 -1 0 314)">
				<stop  offset="0" style="stop-color:#FF6CFF"/>
				<stop  offset="0.0668" style="stop-color:#FF72FF;stop-opacity:0.9742"/>
				<stop  offset="0.1568" style="stop-color:#FF83FF;stop-opacity:0.9394"/>
				<stop  offset="0.2597" style="stop-color:#FF9FFF;stop-opacity:0.8997"/>
				<stop  offset="0.2902" style="stop-color:#FFA9FF;stop-opacity:0.8879"/>
				<stop  offset="0.3415" style="stop-color:#F3A2FE;stop-opacity:0.6556"/>
				<stop  offset="0.4328" style="stop-color:#D58FFD;stop-opacity:0.2423"/>
				<stop  offset="0.4864" style="stop-color:#C082FC;stop-opacity:0"/>
				<stop  offset="0.6355" style="stop-color:#988AFA;stop-opacity:0.3638"/>
				<stop  offset="0.6965" style="stop-color:#868DF9;stop-opacity:0.5127"/>
				<stop  offset="0.8349" style="stop-color:#4A9DF4;stop-opacity:0.3685"/>
				<stop  offset="0.9967" style="stop-color:#00B2EE;stop-opacity:0.2"/>
			</linearGradient>
			<path class="st10" d="M112.38,31.23c-15.72-9.53-41.78-9.24-58.22,0.66c-8.45,5.09-12.68,11.73-12.69,18.27
				c0.32-6.3,4.55-12.64,12.69-17.54c16.44-9.9,42.51-10.19,58.22-0.66c7.63,4.63,11.39,10.73,11.38,16.92
				C124.08,42.44,120.31,36.04,112.38,31.23z"/>
			
				<linearGradient id="SVGID_12_" gradientUnits="userSpaceOnUse" x1="101.1054" y1="305.95" x2="101.8021" y2="305.95" gradientTransform="matrix(1 0 0 -1 0 314)">
				<stop  offset="0" style="stop-color:#FF6CFF"/>
				<stop  offset="0.0668" style="stop-color:#FF72FF;stop-opacity:0.9742"/>
				<stop  offset="0.1568" style="stop-color:#FF83FF;stop-opacity:0.9394"/>
				<stop  offset="0.2597" style="stop-color:#FF9FFF;stop-opacity:0.8997"/>
				<stop  offset="0.2902" style="stop-color:#FFA9FF;stop-opacity:0.8879"/>
				<stop  offset="0.3415" style="stop-color:#F3A2FE;stop-opacity:0.6556"/>
				<stop  offset="0.4328" style="stop-color:#D58FFD;stop-opacity:0.2423"/>
				<stop  offset="0.4864" style="stop-color:#C082FC;stop-opacity:0"/>
				<stop  offset="0.6355" style="stop-color:#988AFA;stop-opacity:0.3638"/>
				<stop  offset="0.6965" style="stop-color:#868DF9;stop-opacity:0.5127"/>
				<stop  offset="0.8349" style="stop-color:#4A9DF4;stop-opacity:0.3685"/>
				<stop  offset="0.9967" style="stop-color:#00B2EE;stop-opacity:0.2"/>
			</linearGradient>
			<path class="st11" d="M101.13,16.1l0.6-16.1h-0.03l-0.6,16.1C101.12,16.1,101.12,16.1,101.13,16.1z"/>
			
				<linearGradient id="SVGID_13_" gradientUnits="userSpaceOnUse" x1="133.87" y1="286.91" x2="156.2739" y2="286.91" gradientTransform="matrix(1 0 0 -1 0 314)">
				<stop  offset="0" style="stop-color:#FF6CFF"/>
				<stop  offset="0.0668" style="stop-color:#FF72FF;stop-opacity:0.9742"/>
				<stop  offset="0.1568" style="stop-color:#FF83FF;stop-opacity:0.9394"/>
				<stop  offset="0.2597" style="stop-color:#FF9FFF;stop-opacity:0.8997"/>
				<stop  offset="0.2902" style="stop-color:#FFA9FF;stop-opacity:0.8879"/>
				<stop  offset="0.3415" style="stop-color:#F3A2FE;stop-opacity:0.6556"/>
				<stop  offset="0.4328" style="stop-color:#D58FFD;stop-opacity:0.2423"/>
				<stop  offset="0.4864" style="stop-color:#C082FC;stop-opacity:0"/>
				<stop  offset="0.6355" style="stop-color:#988AFA;stop-opacity:0.3638"/>
				<stop  offset="0.6965" style="stop-color:#868DF9;stop-opacity:0.5127"/>
				<stop  offset="0.8349" style="stop-color:#4A9DF4;stop-opacity:0.3685"/>
				<stop  offset="0.9967" style="stop-color:#00B2EE;stop-opacity:0.2"/>
			</linearGradient>
			<path class="st12" d="M134.25,33.22l19.74-11.89l-0.61-0.37l-19.51,11.75C134.02,32.88,134.12,33.05,134.25,33.22z"/>
			
				<linearGradient id="SVGID_14_" gradientUnits="userSpaceOnUse" x1="0" y1="250.99" x2="34.9023" y2="250.99" gradientTransform="matrix(1 0 0 -1 0 314)">
				<stop  offset="0" style="stop-color:#FF6CFF"/>
				<stop  offset="0.0668" style="stop-color:#FF72FF;stop-opacity:0.9742"/>
				<stop  offset="0.1568" style="stop-color:#FF83FF;stop-opacity:0.9394"/>
				<stop  offset="0.2597" style="stop-color:#FF9FFF;stop-opacity:0.8997"/>
				<stop  offset="0.2902" style="stop-color:#FFA9FF;stop-opacity:0.8879"/>
				<stop  offset="0.3415" style="stop-color:#F3A2FE;stop-opacity:0.6556"/>
				<stop  offset="0.4328" style="stop-color:#D58FFD;stop-opacity:0.2423"/>
				<stop  offset="0.4864" style="stop-color:#C082FC;stop-opacity:0"/>
				<stop  offset="0.6355" style="stop-color:#988AFA;stop-opacity:0.3638"/>
				<stop  offset="0.6965" style="stop-color:#868DF9;stop-opacity:0.5127"/>
				<stop  offset="0.8349" style="stop-color:#4A9DF4;stop-opacity:0.3685"/>
				<stop  offset="0.9967" style="stop-color:#00B2EE;stop-opacity:0.2"/>
			</linearGradient>
			<path class="st13" d="M30.96,65.81l0.37-0.22c-1.44-1.74-2.58-3.54-3.48-5.38L0.03,60.52L0,61.26l27.86-0.31
				C28.67,62.61,29.72,64.23,30.96,65.81z"/>
			
				<linearGradient id="SVGID_15_" gradientUnits="userSpaceOnUse" x1="132.69" y1="262.395" x2="168.9068" y2="262.395" gradientTransform="matrix(1 0 0 -1 0 314)">
				<stop  offset="0" style="stop-color:#FF6CFF"/>
				<stop  offset="0.0668" style="stop-color:#FF72FF;stop-opacity:0.9742"/>
				<stop  offset="0.1568" style="stop-color:#FF83FF;stop-opacity:0.9394"/>
				<stop  offset="0.2597" style="stop-color:#FF9FFF;stop-opacity:0.8997"/>
				<stop  offset="0.2902" style="stop-color:#FFA9FF;stop-opacity:0.8879"/>
				<stop  offset="0.3415" style="stop-color:#F3A2FE;stop-opacity:0.6556"/>
				<stop  offset="0.4328" style="stop-color:#D58FFD;stop-opacity:0.2423"/>
				<stop  offset="0.4864" style="stop-color:#C082FC;stop-opacity:0"/>
				<stop  offset="0.6355" style="stop-color:#988AFA;stop-opacity:0.3638"/>
				<stop  offset="0.6965" style="stop-color:#868DF9;stop-opacity:0.5127"/>
				<stop  offset="0.8349" style="stop-color:#4A9DF4;stop-opacity:0.3685"/>
				<stop  offset="0.9967" style="stop-color:#00B2EE;stop-opacity:0.2"/>
			</linearGradient>
			<path class="st14" d="M164.44,58.66l-27.86,0.32c-1.04,1.86-2.32,3.7-3.89,5.47l0.39,0.24c1.37-1.62,2.55-3.28,3.49-4.97
				l27.86-0.32l0.78-20.88h-0.03L164.44,58.66z"/>
			
				<linearGradient id="SVGID_16_" gradientUnits="userSpaceOnUse" x1="63.48" y1="225.865" x2="161.9826" y2="225.865" gradientTransform="matrix(1 0 0 -1 0 314)">
				<stop  offset="0" style="stop-color:#FF6CFF"/>
				<stop  offset="0.0668" style="stop-color:#FF72FF;stop-opacity:0.9742"/>
				<stop  offset="0.1568" style="stop-color:#FF83FF;stop-opacity:0.9394"/>
				<stop  offset="0.2597" style="stop-color:#FF9FFF;stop-opacity:0.8997"/>
				<stop  offset="0.2902" style="stop-color:#FFA9FF;stop-opacity:0.8879"/>
				<stop  offset="0.3415" style="stop-color:#F3A2FE;stop-opacity:0.6556"/>
				<stop  offset="0.4328" style="stop-color:#D58FFD;stop-opacity:0.2423"/>
				<stop  offset="0.4864" style="stop-color:#C082FC;stop-opacity:0"/>
				<stop  offset="0.6355" style="stop-color:#988AFA;stop-opacity:0.3638"/>
				<stop  offset="0.6965" style="stop-color:#868DF9;stop-opacity:0.5127"/>
				<stop  offset="0.8349" style="stop-color:#4A9DF4;stop-opacity:0.3685"/>
				<stop  offset="0.9967" style="stop-color:#00B2EE;stop-opacity:0.2"/>
			</linearGradient>
			<path class="st15" d="M126.95,91.15l-19.23-11.67c-2.93,0.94-5.97,1.71-9.06,2.33l-0.63,16.84l-34.52,0.39l-0.03,0.74l34.55-0.39
				l0.63-16.83c3.09-0.62,6.12-1.39,9.06-2.33l19.23,11.67l24.98-15.04l-0.61-0.37L126.95,91.15z"/>
			
				<linearGradient id="SVGID_17_" gradientUnits="userSpaceOnUse" x1="13.29" y1="285.54" x2="34.7097" y2="285.54" gradientTransform="matrix(1 0 0 -1 0 314)">
				<stop  offset="0" style="stop-color:#FF6CFF"/>
				<stop  offset="0.0668" style="stop-color:#FF72FF;stop-opacity:0.9742"/>
				<stop  offset="0.1568" style="stop-color:#FF83FF;stop-opacity:0.9394"/>
				<stop  offset="0.2597" style="stop-color:#FF9FFF;stop-opacity:0.8997"/>
				<stop  offset="0.2902" style="stop-color:#FFA9FF;stop-opacity:0.8879"/>
				<stop  offset="0.3415" style="stop-color:#F3A2FE;stop-opacity:0.6556"/>
				<stop  offset="0.4328" style="stop-color:#D58FFD;stop-opacity:0.2423"/>
				<stop  offset="0.4864" style="stop-color:#C082FC;stop-opacity:0"/>
				<stop  offset="0.6355" style="stop-color:#988AFA;stop-opacity:0.3638"/>
				<stop  offset="0.6965" style="stop-color:#868DF9;stop-opacity:0.5127"/>
				<stop  offset="0.8349" style="stop-color:#4A9DF4;stop-opacity:0.3685"/>
				<stop  offset="0.9967" style="stop-color:#00B2EE;stop-opacity:0.2"/>
			</linearGradient>
			<path class="st16" d="M32.52,33.86L13.9,22.56l-0.61,0.37l18.84,11.43C32.26,34.19,32.37,34.02,32.52,33.86z"/>
			
				<linearGradient id="SVGID_18_" gradientUnits="userSpaceOnUse" x1="11.22" y1="228.505" x2="70.1243" y2="228.505" gradientTransform="matrix(1 0 0 -1 0 314)">
				<stop  offset="0" style="stop-color:#FF6CFF"/>
				<stop  offset="0.0668" style="stop-color:#FF72FF;stop-opacity:0.9742"/>
				<stop  offset="0.1568" style="stop-color:#FF83FF;stop-opacity:0.9394"/>
				<stop  offset="0.2597" style="stop-color:#FF9FFF;stop-opacity:0.8997"/>
				<stop  offset="0.2902" style="stop-color:#FFA9FF;stop-opacity:0.8879"/>
				<stop  offset="0.3415" style="stop-color:#F3A2FE;stop-opacity:0.6556"/>
				<stop  offset="0.4328" style="stop-color:#D58FFD;stop-opacity:0.2423"/>
				<stop  offset="0.4864" style="stop-color:#C082FC;stop-opacity:0"/>
				<stop  offset="0.6355" style="stop-color:#988AFA;stop-opacity:0.3638"/>
				<stop  offset="0.6965" style="stop-color:#868DF9;stop-opacity:0.5127"/>
				<stop  offset="0.8349" style="stop-color:#4A9DF4;stop-opacity:0.3685"/>
				<stop  offset="0.9967" style="stop-color:#00B2EE;stop-opacity:0.2"/>
			</linearGradient>
			<path class="st17" d="M64.11,82.2c-3.05-0.55-6.03-1.25-8.89-2.13L35.1,92.19L11.83,78.07l-0.61,0.37L35.1,92.92l20.12-12.11
				c2.86,0.87,5.83,1.57,8.86,2.12L64.11,82.2z"/>
		</g>
		
			<linearGradient id="SVGID_19_" gradientUnits="userSpaceOnUse" x1="139.44" y1="205.13" x2="139.44" y2="240.8021" gradientTransform="matrix(1 0 0 -1 0 314)">
			<stop  offset="0" style="stop-color:#FF6CFF"/>
			<stop  offset="0.0925" style="stop-color:#F96EFF;stop-opacity:0.9258"/>
			<stop  offset="0.2172" style="stop-color:#E872FD;stop-opacity:0.8257"/>
			<stop  offset="0.3604" style="stop-color:#CB7AFC;stop-opacity:0.7107"/>
			<stop  offset="0.5174" style="stop-color:#A485F9;stop-opacity:0.5847"/>
			<stop  offset="0.6856" style="stop-color:#7193F6;stop-opacity:0.4497"/>
			<stop  offset="0.8604" style="stop-color:#35A4F2;stop-opacity:0.3094"/>
			<stop  offset="0.9967" style="stop-color:#00B2EE;stop-opacity:0.2"/>
		</linearGradient>
		<polygon class="st18" points="126.95,91.88 126.95,108.87 151.93,93.83 151.93,76.84 		"/>
		
			<linearGradient id="SVGID_20_" gradientUnits="userSpaceOnUse" x1="23.16" y1="204.09" x2="23.16" y2="239.1453" gradientTransform="matrix(1 0 0 -1 0 314)">
			<stop  offset="0" style="stop-color:#FF6CFF"/>
			<stop  offset="0.0925" style="stop-color:#F96EFF;stop-opacity:0.9258"/>
			<stop  offset="0.2172" style="stop-color:#E872FD;stop-opacity:0.8257"/>
			<stop  offset="0.3604" style="stop-color:#CB7AFC;stop-opacity:0.7107"/>
			<stop  offset="0.5174" style="stop-color:#A485F9;stop-opacity:0.5847"/>
			<stop  offset="0.6856" style="stop-color:#7193F6;stop-opacity:0.4497"/>
			<stop  offset="0.8604" style="stop-color:#35A4F2;stop-opacity:0.3094"/>
			<stop  offset="0.9967" style="stop-color:#00B2EE;stop-opacity:0.2"/>
		</linearGradient>
		<polygon class="st19" points="11.22,78.44 11.22,95.43 35.1,109.91 35.1,92.92 		"/>
	</g>
</g>
</svg>
