<?xml version="1.0" encoding="utf-8"?>
<!-- Generator: Adobe Illustrator 24.1.1, SVG Export Plug-In . SVG Version: 6.00 Build 0)  -->
<svg version="1.1" id="Camada_1" xmlns="http://www.w3.org/2000/svg" xmlns:xlink="http://www.w3.org/1999/xlink" x="0px" y="0px"
	 viewBox="0 0 389.49 41.29" style="enable-background:new 0 0 389.49 41.29;" xml:space="preserve">
<style type="text/css">
	.st0{fill:#112129;}
</style>
<g>
	<path class="st0" d="M22.71,15.66l-0.7,5.9h5.13v5.29h-5.78l-0.78,6.11H15l0.78-6.11h-5.04l-0.78,6.11H4.39l0.78-6.11H0v-5.29h5.82
		l0.7-5.9H1.35v-5.29h5.82l0.78-6.11h5.58l-0.78,6.11h5.04l0.78-6.11h5.58l-0.78,6.11h5.17v5.29
		C28.54,15.66,22.71,15.66,22.71,15.66z M17.14,15.66H12.1l-0.7,5.9h5.04L17.14,15.66z"/>
	<path class="st0" d="M32.02,31.04l2.34-5.33c2.05,1.27,5.04,2.05,7.75,2.05c2.62,0,3.49-0.57,3.49-1.52
		c0-2.99-13.12,0.41-13.12-8.49c0-4.18,3.85-7.38,10.82-7.38c3.12,0,6.56,0.66,8.77,1.89l-2.34,5.29c-2.21-1.23-4.43-1.64-6.4-1.64
		c-2.62,0-3.57,0.74-3.57,1.56c0,3.07,13.08-0.25,13.08,8.57c0,4.1-3.77,7.3-10.99,7.3C38.09,33.33,34.2,32.39,32.02,31.04z"/>
	<path class="st0" d="M81.64,10.74v22.22h-7.42v-2.38c-1.68,1.84-4.06,2.75-6.6,2.75c-5.45,0-9.43-3.12-9.43-10.17V10.74h7.79v11.15
		c0,3.44,1.35,4.8,3.69,4.8c2.3,0,4.18-1.52,4.18-5.25v-10.7C73.85,10.74,81.64,10.74,81.64,10.74z"/>
	<path class="st0" d="M113.58,21.85c0,7.05-4.88,11.48-10.91,11.48c-2.58,0-4.67-0.78-6.19-2.34v9.92h-7.79V10.74h7.42v2.21
		c1.48-1.76,3.65-2.58,6.56-2.58C108.7,10.37,113.58,14.8,113.58,21.85z M105.71,21.85c0-3.36-2.05-5.29-4.67-5.29
		s-4.67,1.93-4.67,5.29s2.05,5.29,4.67,5.29S105.71,25.22,105.71,21.85z"/>
	<path class="st0" d="M134.12,10.37v7.01c-0.7-0.08-1.19-0.12-1.76-0.12c-3.16,0-5.33,1.6-5.33,5.49v10.21h-7.79V10.74h7.42v2.67
		C128.26,11.4,130.84,10.37,134.12,10.37z"/>
	<path class="st0" d="M161.76,23.82H145.6c0.66,2.25,2.58,3.57,5.45,3.57c2.17,0,3.61-0.62,5.13-1.93l4.1,4.26
		c-2.13,2.38-5.25,3.61-9.47,3.61c-7.91,0-13.04-4.88-13.04-11.52c0-6.68,5.21-11.44,12.22-11.44c6.56,0,11.89,4.18,11.89,11.52
		C161.88,22.47,161.8,23.21,161.76,23.82z M145.48,19.72h9.1c-0.41-2.34-2.13-3.81-4.55-3.81S145.93,17.38,145.48,19.72z"/>
	<path class="st0" d="M205.46,20.25v12.71h-7.79V21.53c0-3.2-1.31-4.55-3.36-4.55c-2.25,0-3.9,1.52-3.9,4.96v11.03h-7.79V21.53
		c0-3.2-1.27-4.55-3.36-4.55c-2.3,0-3.94,1.52-3.94,4.96v11.03h-7.79V10.74h7.42v2.34c1.68-1.8,4.02-2.71,6.64-2.71
		c3.03,0,5.62,1.11,7.17,3.49c1.76-2.21,4.51-3.49,7.71-3.49C201.65,10.37,205.46,13.37,205.46,20.25z"/>
	<path class="st0" d="M211.37,21.81c0-6.68,5.29-11.44,12.55-11.44c7.34,0,12.55,4.76,12.55,11.44c0,6.72-5.21,11.52-12.55,11.52
		C216.66,33.33,211.37,28.54,211.37,21.81z M228.59,21.81c0-3.36-2.01-5.25-4.67-5.25c-2.62,0-4.67,1.89-4.67,5.25
		c0,3.4,2.05,5.33,4.67,5.33C226.58,27.14,228.59,25.22,228.59,21.81z"/>
	<path class="st0" d="M265.74,2.54v30.42h-7.42v-2.21c-1.48,1.76-3.65,2.58-6.52,2.58c-6.07,0-10.95-4.43-10.95-11.52
		c0-7.05,4.88-11.44,10.95-11.44c2.58,0,4.67,0.74,6.15,2.3V2.54H265.74z M258.07,21.81c0-3.36-2.01-5.25-4.63-5.25
		c-2.67,0-4.67,1.89-4.67,5.25c0,3.4,2.01,5.33,4.67,5.33C256.06,27.14,258.07,25.22,258.07,21.81z"/>
	<path class="st0" d="M271.93,4.14c0-2.34,1.89-4.14,4.76-4.14s4.76,1.68,4.76,4.02c0,2.46-1.89,4.26-4.76,4.26
		C273.82,8.28,271.93,6.48,271.93,4.14z M272.79,10.74h7.79v22.22h-7.79V10.74z"/>
	<path class="st0" d="M311.58,10.74V28.9c0,8.41-4.76,12.38-13.04,12.38c-4.26,0-8.32-0.98-11.03-2.91l2.83-5.45
		c1.84,1.48,4.88,2.38,7.5,2.38c4.18,0,5.95-1.89,5.95-5.37v-0.74c-1.52,1.76-3.77,2.62-6.6,2.62c-5.9,0-10.91-4.18-10.91-10.74
		c0-6.52,5-10.7,10.91-10.7c3.08,0,5.45,0.98,6.97,3.08v-2.71C304.16,10.74,311.58,10.74,311.58,10.74z M303.87,21.07
		c0-2.71-2.05-4.51-4.84-4.51s-4.88,1.8-4.88,4.51s2.09,4.55,4.88,4.55S303.87,23.78,303.87,21.07z"/>
	<path class="st0" d="M317.77,4.14c0-2.34,1.89-4.14,4.76-4.14s4.76,1.68,4.76,4.02c0,2.46-1.89,4.26-4.76,4.26
		C319.66,8.28,317.77,6.48,317.77,4.14z M318.63,10.74h7.79v22.22h-7.79V10.74z"/>
	<path class="st0" d="M348.85,32.06c-1.35,0.86-3.36,1.27-5.41,1.27c-5.7,0-9.02-2.79-9.02-8.49v-7.46h-3.24v-5.82h3.24V5.78h7.79
		v5.78h5.08v5.82h-5.08v7.38c0,1.64,0.94,2.54,2.34,2.54c0.86,0,1.72-0.25,2.38-0.7L348.85,32.06z"/>
	<path class="st0" d="M374.72,20.62v12.34h-7.26v-2.87c-1.11,2.13-3.32,3.24-6.56,3.24c-5.33,0-8.28-2.99-8.28-6.85
		c0-4.1,2.99-6.64,9.88-6.64h4.43c-0.12-2.25-1.64-3.53-4.71-3.53c-2.13,0-4.51,0.74-6.03,1.93l-2.62-5.29
		c2.54-1.68,6.31-2.58,9.8-2.58C370.58,10.37,374.72,13.57,374.72,20.62z M366.93,25.83V23.9h-3.36c-2.5,0-3.4,0.9-3.4,2.25
		c0,1.31,1.07,2.25,2.91,2.25C364.8,28.41,366.32,27.59,366.93,25.83z"/>
	<path class="st0" d="M381.7,2.54h7.79v30.42h-7.79V2.54z"/>
</g>
</svg>
